     ________          ________          ________          ________          ________     
    /\      /\        /\      /\        /\      /\        /\      /\        /\      /\    
   /  \    /  \      /  \    /  \      /  \    /  \      /  \    /  \      /  \    /  \   
  /    \  /    \    /    \  /    \    /    \  /    \    /    \  /    \    /    \  /    \  
 /____  \/      \  /____  \/      \  /____  \/      \  /____  \/      \  /____  \/      \ 
 \      /\      /  \      /\      /  \      /\      /  \      /\      /  \      /\      / 
  \    /  \    /    \    /  \    /    \    /  \    /    \    /  \    /    \    /  \    /  
   \  /    \  /      \  /    \  /      \  /    \  /      \  /    \  /      \  /    \  /   
    \/______\/        \/______\/        \/______\/        \/______\/        \/______\/    

     ________          ________          ________          ________          ________     
    /\      /\        /\      /\        /\      /\        /\      /\        /\      /\    
   /  \    /  \      /  \    /  \      /  \    /  \      /  \    /  \      /  \    /  \   
  /    \  /    \    /    \  /    \    /    \  /    \    /    \  /    \    /    \  /    \  
 /____  \/      \  /____  \/      \  /____  \/      \  /____  \/      \  /____  \/      \ 
 \      /\      /  \      /\      /  \      /\      /  \      /\      /  \      /\      / 
  \    /  \    /    \    /  \    /    \    /  \    /    \    /  \    /    \    /  \    /  
   \  /    \  /      \  /    \  /      \  /    \  /      \  /    \  /      \  /    \  /   
    \/______\/        \/______\/        \/______\/        \/______\/        \/______\/    

     ________          ________          ________          ________          ________     
    /\      /\        /\      /\        /\      /\        /\      /\        /\      /\    
   /  \    /  \      /  \    /  \      /  \    /  \      /  \    /  \      /  \    /  \   
  /    \  /    \    /    \  /    \    /    \  /    \    /    \  /    \    /    \  /    \  
 /____  \/      \  /____  \/      \  /____  \/      \  /____  \/      \  /____  \/      \ 
 \      /\      /  \      /\      /  \      /\      /  \      /\      /  \      /\      / 
  \    /  \    /    \    /  \    /    \    /  \    /    \    /  \    /    \    /  \    /  
   \  /    \  /      \  /    \  /      \  /    \  /      \  /    \  /      \  /    \  /   
    \/______\/        \/______\/        \/______\/        \/______\/        \/______\/    

     ________          ________          ________          ________          ________     
    /\      /\        /\      /\        /\      /\        /\      /\        /\      /\    
   /  \    /  \      /  \    /  \      /  \    /  \      /  \    /  \      /  \    /  \   
  /    \  /    \    /    \  /    \    /    \  /    \    /    \  /    \    /    \  /    \  
 /____  \/      \  /____  \/      \  /____  \/      \  /____  \/      \  /____  \/      \ 
 \      /\      /  \      /\      /  \      /\      /  \      /\      /  \      /\      / 
  \    /  \    /    \    /  \    /    \    /  \    /    \    /  \    /    \    /  \    /  
   \  /    \  /      \  /    \  /      \  /    \  /      \  /    \  /      \  /    \  /   
    \/______\/        \/______\/        \/______\/        \/______\/        \/______\/    

     ________          ________          ________          ________          ________     
    /\      /\        /\      /\        /\      /\        /\      /\        /\      /\    
   /  \    /  \      /  \    /  \      /  \    /  \      /  \    /  \      /  \    /  \   
  /    \  /    \    /    \  /    \    /    \  /    \    /    \  /    \    /    \  /    \  
 /____  \/      \  /____  \/      \  /____  \/      \  /____  \/      \  /____  \/      \ 
 \      /\      /  \      /\      /  \      /\      /  \      /\      /  \      /\      / 
  \    /  \    /    \    /  \    /    \    /  \    /    \    /  \    /    \    /  \    /  
   \  /    \  /      \  /    \  /      \  /    \  /      \  /    \  /      \  /    \  /   
    \/______\/        \/______\/        \/______\/        \/______\/        \/______\/    

