<?xml version="1.0" encoding="UTF-8" standalone="no"?>
<svg
   xmlns:dc="http://purl.org/dc/elements/1.1/"
   xmlns:cc="http://creativecommons.org/ns#"
   xmlns:rdf="http://www.w3.org/1999/02/22-rdf-syntax-ns#"
   xmlns:svg="http://www.w3.org/2000/svg"
   xmlns="http://www.w3.org/2000/svg"
   xmlns:sodipodi="http://sodipodi.sourceforge.net/DTD/sodipodi-0.dtd"
   xmlns:inkscape="http://www.inkscape.org/namespaces/inkscape"
   width="159.27563mm"
   height="77.815872mm"
   viewBox="0 0 159.27564 77.815873"
   version="1.1"
   id="svg8"
   sodipodi:docname="p1-8.svg"
   inkscape:export-filename="/Users/enguyen/school/src/cis-3223/homework/hw-05/p1-8.png"
   inkscape:export-xdpi="200"
   inkscape:export-ydpi="200"
   inkscape:version="1.0.2 (e86c8708, 2021-01-15)">
  <defs
     id="defs2">
    <marker
       style="overflow:visible"
       id="marker3396"
       refX="0"
       refY="0"
       orient="auto"
       inkscape:stockid="Arrow1Mend"
       inkscape:isstock="true">
      <path
         transform="matrix(-0.4,0,0,-0.4,-4,0)"
         style="fill:#000000;fill-opacity:1;fill-rule:evenodd;stroke:#000000;stroke-width:1pt;stroke-opacity:1"
         d="M 0,0 5,-5 -12.5,0 5,5 Z"
         id="path3394" />
    </marker>
    <marker
       style="overflow:visible"
       id="marker3386"
       refX="0"
       refY="0"
       orient="auto"
       inkscape:stockid="Arrow1Mend"
       inkscape:isstock="true">
      <path
         transform="matrix(-0.4,0,0,-0.4,-4,0)"
         style="fill:#000000;fill-opacity:1;fill-rule:evenodd;stroke:#000000;stroke-width:1pt;stroke-opacity:1"
         d="M 0,0 5,-5 -12.5,0 5,5 Z"
         id="path3384" />
    </marker>
    <marker
       style="overflow:visible"
       id="marker3572"
       refX="0"
       refY="0"
       orient="auto"
       inkscape:stockid="Arrow1Mend"
       inkscape:isstock="true">
      <path
         transform="matrix(-0.4,0,0,-0.4,-4,0)"
         style="fill:#000000;fill-opacity:1;fill-rule:evenodd;stroke:#000000;stroke-width:1pt;stroke-opacity:1"
         d="M 0,0 5,-5 -12.5,0 5,5 Z"
         id="path3570" />
    </marker>
    <marker
       style="overflow:visible"
       id="marker3562"
       refX="0"
       refY="0"
       orient="auto"
       inkscape:stockid="Arrow1Mend"
       inkscape:isstock="true">
      <path
         transform="matrix(-0.4,0,0,-0.4,-4,0)"
         style="fill:#000000;fill-opacity:1;fill-rule:evenodd;stroke:#000000;stroke-width:1pt;stroke-opacity:1"
         d="M 0,0 5,-5 -12.5,0 5,5 Z"
         id="path3560" />
    </marker>
    <marker
       style="overflow:visible"
       id="marker3214"
       refX="0"
       refY="0"
       orient="auto"
       inkscape:stockid="Arrow1Mend"
       inkscape:isstock="true">
      <path
         transform="matrix(-0.4,0,0,-0.4,-4,0)"
         style="fill:#000000;fill-opacity:1;fill-rule:evenodd;stroke:#000000;stroke-width:1pt;stroke-opacity:1"
         d="M 0,0 5,-5 -12.5,0 5,5 Z"
         id="path3212" />
    </marker>
    <marker
       style="overflow:visible"
       id="marker3182"
       refX="0"
       refY="0"
       orient="auto"
       inkscape:stockid="Arrow1Mend"
       inkscape:isstock="true"
       inkscape:collect="always">
      <path
         transform="matrix(-0.4,0,0,-0.4,-4,0)"
         style="fill:#000000;fill-opacity:1;fill-rule:evenodd;stroke:#000000;stroke-width:1pt;stroke-opacity:1"
         d="M 0,0 5,-5 -12.5,0 5,5 Z"
         id="path3180" />
    </marker>
    <marker
       style="overflow:visible"
       id="marker2780"
       refX="0"
       refY="0"
       orient="auto"
       inkscape:stockid="Arrow1Mend"
       inkscape:isstock="true"
       inkscape:collect="always">
      <path
         transform="matrix(-0.4,0,0,-0.4,-4,0)"
         style="fill:#000000;fill-opacity:1;fill-rule:evenodd;stroke:#000000;stroke-width:1pt;stroke-opacity:1"
         d="M 0,0 5,-5 -12.5,0 5,5 Z"
         id="path2778" />
    </marker>
    <marker
       style="overflow:visible"
       id="marker2716"
       refX="0"
       refY="0"
       orient="auto"
       inkscape:stockid="Arrow1Mend"
       inkscape:isstock="true">
      <path
         transform="matrix(-0.4,0,0,-0.4,-4,0)"
         style="fill:#000000;fill-opacity:1;fill-rule:evenodd;stroke:#000000;stroke-width:1pt;stroke-opacity:1"
         d="M 0,0 5,-5 -12.5,0 5,5 Z"
         id="path2714" />
    </marker>
    <marker
       style="overflow:visible"
       id="marker2692"
       refX="0"
       refY="0"
       orient="auto"
       inkscape:stockid="Arrow1Mend"
       inkscape:isstock="true"
       inkscape:collect="always">
      <path
         transform="matrix(-0.4,0,0,-0.4,-4,0)"
         style="fill:#000000;fill-opacity:1;fill-rule:evenodd;stroke:#000000;stroke-width:1pt;stroke-opacity:1"
         d="M 0,0 5,-5 -12.5,0 5,5 Z"
         id="path2690" />
    </marker>
    <marker
       style="overflow:visible"
       id="marker2596"
       refX="0"
       refY="0"
       orient="auto"
       inkscape:stockid="Arrow1Mend"
       inkscape:isstock="true"
       inkscape:collect="always">
      <path
         transform="matrix(-0.4,0,0,-0.4,-4,0)"
         style="fill:#000000;fill-opacity:1;fill-rule:evenodd;stroke:#000000;stroke-width:1pt;stroke-opacity:1"
         d="M 0,0 5,-5 -12.5,0 5,5 Z"
         id="path2594" />
    </marker>
    <marker
       style="overflow:visible"
       id="Arrow1Mend"
       refX="0"
       refY="0"
       orient="auto"
       inkscape:stockid="Arrow1Mend"
       inkscape:isstock="true"
       inkscape:collect="always">
      <path
         transform="matrix(-0.4,0,0,-0.4,-4,0)"
         style="fill:#000000;fill-opacity:1;fill-rule:evenodd;stroke:#000000;stroke-width:1pt;stroke-opacity:1"
         d="M 0,0 5,-5 -12.5,0 5,5 Z"
         id="path2251" />
    </marker>
  </defs>
  <sodipodi:namedview
     id="base"
     pagecolor="#ffffff"
     bordercolor="#666666"
     borderopacity="1.0"
     inkscape:pageopacity="0.0"
     inkscape:pageshadow="2"
     inkscape:zoom="1.1030145"
     inkscape:cx="300.99333"
     inkscape:cy="147.05362"
     inkscape:document-units="mm"
     inkscape:current-layer="layer1"
     inkscape:document-rotation="0"
     showgrid="false"
     inkscape:window-width="688"
     inkscape:window-height="599"
     inkscape:window-x="665"
     inkscape:window-y="76"
     inkscape:window-maximized="0"
     fit-margin-top="5"
     fit-margin-left="5"
     fit-margin-right="5"
     fit-margin-bottom="5"
     lock-margins="false" />
  <metadata
     id="metadata5">
    <rdf:RDF>
      <cc:Work
         rdf:about="">
        <dc:format>image/svg+xml</dc:format>
        <dc:type
           rdf:resource="http://purl.org/dc/dcmitype/StillImage" />
        <dc:title></dc:title>
      </cc:Work>
    </rdf:RDF>
  </metadata>
  <g
     inkscape:label="Layer 1"
     inkscape:groupmode="layer"
     id="layer1"
     transform="translate(-13.606157,-70.0727)">
    <circle
       style="fill:#d8d9db;fill-opacity:1;stroke:#ffffff;stroke-width:0.265;stroke-miterlimit:4;stroke-dasharray:none"
       id="path2232"
       cx="28.977573"
       cy="85.444107"
       r="10.238907" />
    <circle
       style="fill:#d8d9db;fill-opacity:1;stroke:#ffffff;stroke-width:0.265;stroke-miterlimit:4;stroke-dasharray:none"
       id="circle2234"
       cx="72.378265"
       cy="85.444107"
       r="10.238907" />
    <circle
       style="fill:#d8d9db;fill-opacity:1;stroke:#ffffff;stroke-width:0.265;stroke-miterlimit:4;stroke-dasharray:none"
       id="circle2236"
       cx="114.1097"
       cy="85.444107"
       r="10.238907" />
    <path
       style="fill:none;stroke:#000000;stroke-width:0.5;stroke-linecap:butt;stroke-linejoin:miter;stroke-miterlimit:4;stroke-dasharray:none;stroke-opacity:1;marker-end:url(#Arrow1Mend)"
       d="M 39.32697,85.444104 H 61.695021"
       id="path2238" />
    <path
       style="fill:none;stroke:#000000;stroke-width:0.5;stroke-linecap:butt;stroke-linejoin:miter;stroke-miterlimit:4;stroke-dasharray:none;stroke-opacity:1;marker-end:url(#marker2596)"
       d="M 82.059962,85.444104 H 104.42801"
       id="path2592" />
    <path
       style="fill:none;stroke:#000000;stroke-width:0.5;stroke-linecap:butt;stroke-linejoin:miter;stroke-miterlimit:4;stroke-dasharray:none;stroke-opacity:1;marker-end:url(#marker2692)"
       d="M 82.059962,85.444104 H 104.42801"
       id="path2638" />
    <circle
       style="fill:#d8d9db;fill-opacity:1;stroke:#ffffff;stroke-width:0.265;stroke-miterlimit:4;stroke-dasharray:none"
       id="circle2688"
       cx="157.51039"
       cy="85.444107"
       r="10.238907" />
    <path
       style="fill:none;stroke:#000000;stroke-width:0.5;stroke-linecap:butt;stroke-linejoin:miter;stroke-miterlimit:4;stroke-dasharray:none;stroke-opacity:1;marker-end:url(#marker2716)"
       d="M 124.12525,85.444104 H 146.4933"
       id="path2712" />
    <circle
       style="fill:#d8d9db;fill-opacity:1;stroke:#ffffff;stroke-width:0.265;stroke-miterlimit:4;stroke-dasharray:none"
       id="circle2768"
       cx="28.977564"
       cy="132.18332"
       r="10.238907" />
    <path
       style="fill:none;stroke:#000000;stroke-width:0.5;stroke-linecap:butt;stroke-linejoin:miter;stroke-miterlimit:4;stroke-dasharray:none;stroke-opacity:1;marker-end:url(#marker2780)"
       d="m 28.643722,94.458094 0.333851,27.375816"
       id="path2776"
       sodipodi:nodetypes="cc" />
    <circle
       style="fill:#d8d9db;fill-opacity:1;stroke:#ffffff;stroke-width:0.265;stroke-miterlimit:4;stroke-dasharray:none"
       id="circle2954"
       cx="114.1097"
       cy="132.51717"
       r="10.238907" />
    <path
       style="fill:none;stroke:#000000;stroke-width:0.5;stroke-linecap:butt;stroke-linejoin:miter;stroke-miterlimit:4;stroke-dasharray:none;stroke-opacity:1;marker-end:url(#marker3386)"
       d="m 113.77585,95.459649 0.33386,27.375811"
       id="path2876"
       sodipodi:nodetypes="cc" />
    <circle
       style="fill:#d8d9db;fill-opacity:1;stroke:#ffffff;stroke-width:0.265;stroke-miterlimit:4;stroke-dasharray:none"
       id="circle3016"
       cx="71.710564"
       cy="130.84792"
       r="10.238907" />
    <circle
       style="fill:#d8d9db;fill-opacity:1;stroke:#ffffff;stroke-width:0.265;stroke-miterlimit:4;stroke-dasharray:none"
       id="circle3018"
       cx="156.50885"
       cy="131.51562"
       r="10.238907" />
    <path
       style="fill:none;stroke:#000000;stroke-width:0.5;stroke-linecap:butt;stroke-linejoin:miter;stroke-miterlimit:4;stroke-dasharray:none;stroke-opacity:1;marker-end:url(#marker3396)"
       d="m 113.77585,95.459649 0.33386,27.375811"
       id="path3026"
       sodipodi:nodetypes="cc" />
    <path
       style="fill:none;stroke:#000000;stroke-width:0.5;stroke-linecap:butt;stroke-linejoin:miter;stroke-miterlimit:4;stroke-dasharray:none;stroke-opacity:1;marker-end:url(#marker3182)"
       d="M 105.41335,130.51406 H 83.045303"
       id="path3142" />
    <path
       style="fill:none;stroke:#000000;stroke-width:0.5;stroke-linecap:butt;stroke-linejoin:miter;stroke-miterlimit:4;stroke-dasharray:none;stroke-opacity:1;marker-end:url(#marker3214)"
       d="m 123.1237,130.51406 h 22.36804"
       id="path3210" />
    <text
       xml:space="preserve"
       style="font-style:normal;font-weight:normal;font-size:10.5833px;line-height:1.25;font-family:sans-serif;fill:#000000;fill-opacity:1;stroke:none;stroke-width:0.264583"
       x="24.971355"
       y="88.448769"
       id="text3300"><tspan
         sodipodi:role="line"
         x="24.971355"
         y="88.448769"
         style="stroke-width:0.264583"
         id="tspan3302">A</tspan></text>
    <text
       xml:space="preserve"
       style="font-style:normal;font-weight:normal;font-size:10.5833px;line-height:1.25;font-family:sans-serif;fill:#000000;fill-opacity:1;stroke:none;stroke-width:0.264583"
       x="69.039757"
       y="88.448769"
       id="text3308"><tspan
         sodipodi:role="line"
         x="69.039757"
         y="88.448769"
         style="stroke-width:0.264583"
         id="tspan3306">B</tspan></text>
    <text
       xml:space="preserve"
       style="font-style:normal;font-weight:normal;font-size:10.5833px;line-height:1.25;font-family:sans-serif;fill:#000000;fill-opacity:1;stroke:none;stroke-width:0.264583"
       x="110.77119"
       y="88.448769"
       id="text3312"><tspan
         sodipodi:role="line"
         x="110.77119"
         y="88.448769"
         style="stroke-width:0.264583"
         id="tspan3310">C</tspan></text>
    <text
       xml:space="preserve"
       style="font-style:normal;font-weight:normal;font-size:10.5833px;line-height:1.25;font-family:sans-serif;fill:#000000;fill-opacity:1;stroke:none;stroke-width:0.264583"
       x="154.17188"
       y="88.448769"
       id="text3316"><tspan
         sodipodi:role="line"
         x="154.17188"
         y="88.448769"
         style="stroke-width:0.264583"
         id="tspan3314">D</tspan></text>
    <text
       xml:space="preserve"
       style="font-style:normal;font-weight:normal;font-size:10.5833px;line-height:1.25;font-family:sans-serif;fill:#000000;fill-opacity:1;stroke:none;stroke-width:0.264583"
       x="24.971355"
       y="88.448769"
       id="text3320"><tspan
         sodipodi:role="line"
         x="24.971355"
         y="88.448769"
         style="stroke-width:0.264583"
         id="tspan3318">A</tspan></text>
    <text
       xml:space="preserve"
       style="font-style:normal;font-weight:normal;font-size:10.5833px;line-height:1.25;font-family:sans-serif;fill:#000000;fill-opacity:1;stroke:none;stroke-width:0.264583"
       x="69.039757"
       y="88.448769"
       id="text3324"><tspan
         sodipodi:role="line"
         x="69.039757"
         y="88.448769"
         style="stroke-width:0.264583"
         id="tspan3322">B</tspan></text>
    <text
       xml:space="preserve"
       style="font-style:normal;font-weight:normal;font-size:10.5833px;line-height:1.25;font-family:sans-serif;fill:#000000;fill-opacity:1;stroke:none;stroke-width:0.264583"
       x="110.77119"
       y="88.448769"
       id="text3328"><tspan
         sodipodi:role="line"
         x="110.77119"
         y="88.448769"
         style="stroke-width:0.264583"
         id="tspan3326">C</tspan></text>
    <text
       xml:space="preserve"
       style="font-style:normal;font-weight:normal;font-size:10.5833px;line-height:1.25;font-family:sans-serif;fill:#000000;fill-opacity:1;stroke:none;stroke-width:0.264583"
       x="154.17188"
       y="88.448769"
       id="text3332"><tspan
         sodipodi:role="line"
         x="154.17188"
         y="88.448769"
         style="stroke-width:0.264583"
         id="tspan3330">D</tspan></text>
    <text
       xml:space="preserve"
       style="font-style:normal;font-weight:normal;font-size:10.5833px;line-height:1.25;font-family:sans-serif;fill:#000000;fill-opacity:1;stroke:none;stroke-width:0.264583"
       x="24.971355"
       y="134.85413"
       id="text3336"><tspan
         sodipodi:role="line"
         x="24.971355"
         y="134.85413"
         style="stroke-width:0.264583"
         id="tspan3334">E</tspan></text>
    <text
       xml:space="preserve"
       style="font-style:normal;font-weight:normal;font-size:10.5833px;line-height:1.25;font-family:sans-serif;fill:#000000;fill-opacity:1;stroke:none;stroke-width:0.264583"
       x="69.039757"
       y="134.85413"
       id="text3340"><tspan
         sodipodi:role="line"
         x="69.039757"
         y="134.85413"
         style="stroke-width:0.264583"
         id="tspan3338">F</tspan></text>
    <text
       xml:space="preserve"
       style="font-style:normal;font-weight:normal;font-size:10.5833px;line-height:1.25;font-family:sans-serif;fill:#000000;fill-opacity:1;stroke:none;stroke-width:0.264583"
       x="110.77119"
       y="134.85413"
       id="text3344"><tspan
         sodipodi:role="line"
         x="110.77119"
         y="134.85413"
         style="stroke-width:0.264583"
         id="tspan3342">G</tspan></text>
    <text
       xml:space="preserve"
       style="font-style:normal;font-weight:normal;font-size:10.5833px;line-height:1.25;font-family:sans-serif;fill:#000000;fill-opacity:1;stroke:none;stroke-width:0.264583"
       x="154.17188"
       y="134.85413"
       id="text3348"><tspan
         sodipodi:role="line"
         x="154.17188"
         y="134.85413"
         style="stroke-width:0.264583"
         id="tspan3350">H</tspan></text>
    <text
       xml:space="preserve"
       style="font-style:normal;font-weight:normal;font-size:10.5833px;line-height:1.25;font-family:sans-serif;fill:#000000;fill-opacity:1;stroke:none;stroke-width:0.264583"
       x="47.325161"
       y="81.7575"
       id="text4032"><tspan
         sodipodi:role="line"
         id="tspan4030"
         x="47.325161"
         y="81.7575"
         style="stroke-width:0.264583">1</tspan></text>
    <text
       xml:space="preserve"
       style="font-style:normal;font-weight:normal;font-size:10.5833px;line-height:1.25;font-family:sans-serif;fill:#000000;fill-opacity:1;stroke:none;stroke-width:0.264583"
       x="91.393562"
       y="81.7575"
       id="text4036"><tspan
         sodipodi:role="line"
         id="tspan4034"
         x="91.393562"
         y="81.7575"
         style="stroke-width:0.264583">2</tspan></text>
    <text
       xml:space="preserve"
       style="font-style:normal;font-weight:normal;font-size:10.5833px;line-height:1.25;font-family:sans-serif;fill:#000000;fill-opacity:1;stroke:none;stroke-width:0.264583"
       x="132.79115"
       y="81.7575"
       id="text4040"><tspan
         sodipodi:role="line"
         id="tspan4038"
         x="132.79115"
         y="81.7575"
         style="stroke-width:0.264583">1</tspan></text>
    <text
       xml:space="preserve"
       style="font-style:normal;font-weight:normal;font-size:10.5833px;line-height:1.25;font-family:sans-serif;fill:#000000;fill-opacity:1;stroke:none;stroke-width:0.264583"
       x="132.79115"
       y="125.1582"
       id="text4044"><tspan
         sodipodi:role="line"
         id="tspan4042"
         x="132.79115"
         y="125.1582"
         style="stroke-width:0.264583">1</tspan></text>
    <text
       xml:space="preserve"
       style="font-style:normal;font-weight:normal;font-size:10.5833px;line-height:1.25;font-family:sans-serif;fill:#000000;fill-opacity:1;stroke:none;stroke-width:0.264583"
       x="92.061272"
       y="125.1582"
       id="text4048"><tspan
         sodipodi:role="line"
         id="tspan4046"
         x="92.061272"
         y="125.1582"
         style="stroke-width:0.264583">1</tspan></text>
    <text
       xml:space="preserve"
       style="font-style:normal;font-weight:normal;font-size:10.5833px;line-height:1.25;font-family:sans-serif;fill:#000000;fill-opacity:1;stroke:none;stroke-width:0.264583"
       x="118.10169"
       y="110.80259"
       id="text4052"><tspan
         sodipodi:role="line"
         id="tspan4050"
         x="118.10169"
         y="110.80259"
         style="stroke-width:0.264583">2</tspan></text>
    <text
       xml:space="preserve"
       style="font-style:normal;font-weight:normal;font-size:10.5833px;line-height:1.25;font-family:sans-serif;fill:#000000;fill-opacity:1;stroke:none;stroke-width:0.264583"
       x="32.635708"
       y="110.80259"
       id="text4056"><tspan
         sodipodi:role="line"
         id="tspan4054"
         x="32.635708"
         y="110.80259"
         style="stroke-width:0.264583">4</tspan></text>
  </g>
</svg>
